9.506005286094078022e-01 2.694488118945767008e-01 1.541297271006330516e-01 -4.926326870918273926e+02
-1.915891570620988638e-01 8.999467882610945324e-01 -3.916495540592062063e-01 1.495775341987609863e+03
-2.442380599000676389e-01 3.427726886248986249e-01 9.071133633836011567e-01 -2.541510462760925293e+02
0.000000000000000000e+00 0.000000000000000000e+00 0.000000000000000000e+00 1.000000000000000000e+00
