8.999963115583171636e-01 -3.374081461261030368e-01 2.759753288052589904e-01 -5.350237488746643066e+02
4.237334626980142627e-01 8.257291655261871366e-01 -3.723188120272425405e-01 1.440698981285095215e+03
-1.022574778261966660e-01 4.520255392421680951e-01 8.861243254202267883e-01 -2.578824758529663086e+02
0.000000000000000000e+00 0.000000000000000000e+00 0.000000000000000000e+00 1.000000000000000000e+00
