9.987838282983492189e-01 4.825926941874561504e-02 -1.009491183035540231e-02 3.108804859220981598e+01
-4.675679422921769079e-02 8.621631756952912173e-01 -5.044684932366113594e-01 1.640405893325805664e+03
-1.564181968635110220e-02 5.043269786459766424e-01 8.633710859686698491e-01 3.548160195350646973e+02
0.000000000000000000e+00 0.000000000000000000e+00 0.000000000000000000e+00 1.000000000000000000e+00
