9.350098644367618173e-01 2.395609490961916888e-02 3.538116150193909570e-01 2.614122927188873291e+02
2.206993270286802533e-01 7.416399165959502993e-01 -6.334524774287647597e-01 1.895150065422058105e+03
-2.775758643236764245e-01 6.703703003775102198e-01 6.881535438524826187e-01 5.221859216690063477e+02
0.000000000000000000e+00 0.000000000000000000e+00 0.000000000000000000e+00 1.000000000000000000e+00
