9.867523389477926843e-01 -1.616315180885741498e-01 -1.396688732120947990e-02 3.297813236713409424e+02
1.121891532804444036e-01 7.420207604313981964e-01 -6.609226770016491948e-01 1.745291233062744141e+03
1.171896559738844490e-01 6.506000641324840572e-01 7.503240240612919498e-01 7.237695455551147461e+02
0.000000000000000000e+00 0.000000000000000000e+00 0.000000000000000000e+00 1.000000000000000000e+00
