9.913695593488024427e-01 6.091427048187489368e-02 1.160855221301180518e-01 1.961718946695327759e+02
7.315295339401454294e-03 8.584103199690269470e-01 -5.129115021373277239e-01 1.620186567306518555e+03
-1.308926401699441466e-01 5.093340497378254783e-01 8.505562547691997155e-01 7.598461955785751343e+01
0.000000000000000000e+00 0.000000000000000000e+00 0.000000000000000000e+00 1.000000000000000000e+00
