9.212795062746470531e-01 -3.587839767809719027e-01 1.500604189104294828e-01 2.400303781032562256e+02
3.861702962720583998e-01 7.983198242734838024e-01 -4.621233173613992218e-01 1.591259598731994629e+03
4.600623431115855033e-02 4.836936180860615941e-01 8.740274081671134399e-01 3.343660235404968262e+02
0.000000000000000000e+00 0.000000000000000000e+00 0.000000000000000000e+00 1.000000000000000000e+00
