9.170996624353404680e-01 -3.204274348745926870e-01 2.371802439931987028e-01 4.010352492332458496e+02
3.952412717429568678e-01 8.085410826420951214e-01 -4.359422608453543679e-01 1.591227889060974121e+03
-5.208211086346965779e-02 4.935459215307502756e-01 8.681589008173375976e-01 3.700743019580841064e+02
0.000000000000000000e+00 0.000000000000000000e+00 0.000000000000000000e+00 1.000000000000000000e+00
