9.720157676561238524e-01 -9.702794822871890768e-02 2.139414048060853946e-01 1.249590367078781128e+02
1.848943011340660747e-01 8.777787469854513303e-01 -4.419486041937414900e-01 1.617985010147094727e+03
-1.449118519515279202e-01 4.691375582951935463e-01 8.711546972615152873e-01 6.306866556406021118e+01
0.000000000000000000e+00 0.000000000000000000e+00 0.000000000000000000e+00 1.000000000000000000e+00
